%!PS-Adobe-3.0 EPSF-3.0
%%Creator: MATLAB, The MathWorks, Inc. Version 8.1.0.604 (R2013a). Operating System: Microsoft Windows 8.
%%Title: C:\Users\Nicolas\Documents\git\C60\LaTeX\energyLevels.eps
%%CreationDate: 05/13/2013  14:48:07
%%DocumentNeededFonts: Helvetica
%%DocumentProcessColors: Cyan Magenta Yellow Black
%%LanguageLevel: 2
%%Pages: 1
%%BoundingBox:  -422    55  1019   786
%%EndComments

%%BeginProlog
% MathWorks dictionary
/MathWorks 160 dict begin
% definition operators
/bdef {bind def} bind def
/ldef {load def} bind def
/xdef {exch def} bdef
/xstore {exch store} bdef
% operator abbreviations
/c  /clip ldef
/cc /concat ldef
/cp /closepath ldef
/gr /grestore ldef
/gs /gsave ldef
/mt /moveto ldef
/np /newpath ldef
/cm /currentmatrix ldef
/sm /setmatrix ldef
/rm /rmoveto ldef
/rl /rlineto ldef
/s {show newpath} bdef
/sc {setcmykcolor} bdef
/sr /setrgbcolor ldef
/sg /setgray ldef
/w /setlinewidth ldef
/j /setlinejoin ldef
/cap /setlinecap ldef
/rc {rectclip} bdef
/rf {rectfill} bdef
% page state control
/pgsv () def
/bpage {/pgsv save def} bdef
/epage {pgsv restore} bdef
/bplot /gsave ldef
/eplot {stroke grestore} bdef
% orientation switch
/portraitMode 0 def /landscapeMode 1 def /rotateMode 2 def
% coordinate system mappings
/dpi2point 0 def
% font control
/FontSize 0 def
/FMS {/FontSize xstore findfont [FontSize 0 0 FontSize neg 0 0]
  makefont setfont} bdef
/ISOLatin1Encoding where {pop /WindowsLatin1Encoding 256 array bdef
ISOLatin1Encoding WindowsLatin1Encoding copy pop
/.notdef/.notdef/quotesinglbase/florin/quotedblbase/ellipsis/dagger
/daggerdbl/circumflex/perthousand/Scaron/guilsinglleft/OE/.notdef/.notdef
/.notdef/.notdef/quoteleft/quoteright/quotedblleft/quotedblright/bullet
/endash/emdash/tilde/trademark/scaron/guilsinglright/oe/.notdef/.notdef
/Ydieresis WindowsLatin1Encoding 128 32 getinterval astore pop}
{/WindowsLatin1Encoding StandardEncoding bdef} ifelse
/reencode {exch dup where {pop load} {pop StandardEncoding} ifelse
  exch dup 3 1 roll findfont dup length dict begin
  { 1 index /FID ne {def}{pop pop} ifelse } forall
  /Encoding exch def currentdict end definefont pop} bdef
/isroman {findfont /CharStrings get /Agrave known} bdef
/FMSR {3 1 roll 1 index dup isroman {reencode} {pop pop} ifelse
  exch FMS} bdef
/csm {1 dpi2point div -1 dpi2point div scale neg translate
 dup landscapeMode eq {pop -90 rotate}
  {rotateMode eq {90 rotate} if} ifelse} bdef
% line types: solid, dotted, dashed, dotdash
/SO { [] 0 setdash } bdef
/DO { [.5 dpi2point mul 4 dpi2point mul] 0 setdash } bdef
/DA { [6 dpi2point mul] 0 setdash } bdef
/DD { [.5 dpi2point mul 4 dpi2point mul 6 dpi2point mul 4
  dpi2point mul] 0 setdash } bdef
% macros for lines and objects
/L {lineto stroke} bdef
/MP {3 1 roll moveto 1 sub {rlineto} repeat} bdef
/AP {{rlineto} repeat} bdef
/PDlw -1 def
/W {/PDlw currentlinewidth def setlinewidth} def
/PP {closepath eofill} bdef
/DP {closepath stroke} bdef
/MR {4 -2 roll moveto dup  0 exch rlineto exch 0 rlineto
  neg 0 exch rlineto closepath} bdef
/FR {MR stroke} bdef
/PR {MR fill} bdef
/L1i {{currentfile picstr readhexstring pop} image} bdef
/tMatrix matrix def
/MakeOval {newpath tMatrix currentmatrix pop translate scale
0 0 1 0 360 arc tMatrix setmatrix} bdef
/FO {MakeOval stroke} bdef
/PO {MakeOval fill} bdef
/PD {currentlinewidth 2 div 0 360 arc fill
   PDlw -1 eq not {PDlw w /PDlw -1 def} if} def
/FA {newpath tMatrix currentmatrix pop translate scale
  0 0 1 5 -2 roll arc tMatrix setmatrix stroke} bdef
/PA {newpath tMatrix currentmatrix pop	translate 0 0 moveto scale
  0 0 1 5 -2 roll arc closepath tMatrix setmatrix fill} bdef
/FAn {newpath tMatrix currentmatrix pop translate scale
  0 0 1 5 -2 roll arcn tMatrix setmatrix stroke} bdef
/PAn {newpath tMatrix currentmatrix pop translate 0 0 moveto scale
  0 0 1 5 -2 roll arcn closepath tMatrix setmatrix fill} bdef
/vradius 0 def /hradius 0 def /lry 0 def
/lrx 0 def /uly 0 def /ulx 0 def /rad 0 def
/MRR {/vradius xdef /hradius xdef /lry xdef /lrx xdef /uly xdef
  /ulx xdef newpath tMatrix currentmatrix pop ulx hradius add uly
  vradius add translate hradius vradius scale 0 0 1 180 270 arc 
  tMatrix setmatrix lrx hradius sub uly vradius add translate
  hradius vradius scale 0 0 1 270 360 arc tMatrix setmatrix
  lrx hradius sub lry vradius sub translate hradius vradius scale
  0 0 1 0 90 arc tMatrix setmatrix ulx hradius add lry vradius sub
  translate hradius vradius scale 0 0 1 90 180 arc tMatrix setmatrix
  closepath} bdef
/FRR {MRR stroke } bdef
/PRR {MRR fill } bdef
/MlrRR {/lry xdef /lrx xdef /uly xdef /ulx xdef /rad lry uly sub 2 div def
  newpath tMatrix currentmatrix pop ulx rad add uly rad add translate
  rad rad scale 0 0 1 90 270 arc tMatrix setmatrix lrx rad sub lry rad
  sub translate rad rad scale 0 0 1 270 90 arc tMatrix setmatrix
  closepath} bdef
/FlrRR {MlrRR stroke } bdef
/PlrRR {MlrRR fill } bdef
/MtbRR {/lry xdef /lrx xdef /uly xdef /ulx xdef /rad lrx ulx sub 2 div def
  newpath tMatrix currentmatrix pop ulx rad add uly rad add translate
  rad rad scale 0 0 1 180 360 arc tMatrix setmatrix lrx rad sub lry rad
  sub translate rad rad scale 0 0 1 0 180 arc tMatrix setmatrix
  closepath} bdef
/FtbRR {MtbRR stroke } bdef
/PtbRR {MtbRR fill } bdef
/stri 6 array def /dtri 6 array def
/smat 6 array def /dmat 6 array def
/tmat1 6 array def /tmat2 6 array def /dif 3 array def
/asub {/ind2 exch def /ind1 exch def dup dup
  ind1 get exch ind2 get sub exch } bdef
/tri_to_matrix {
  2 0 asub 3 1 asub 4 0 asub 5 1 asub
  dup 0 get exch 1 get 7 -1 roll astore } bdef
/compute_transform {
  dmat dtri tri_to_matrix tmat1 invertmatrix 
  smat stri tri_to_matrix tmat2 concatmatrix } bdef
/ds {stri astore pop} bdef
/dt {dtri astore pop} bdef
/db {2 copy /cols xdef /rows xdef mul dup 3 mul string
  currentfile 
  3 index 0 eq {/ASCIIHexDecode filter}
  {/ASCII85Decode filter 3 index 2 eq {/RunLengthDecode filter} if }
  ifelse exch readstring pop
  dup 0 3 index getinterval /rbmap xdef
  dup 2 index dup getinterval /gbmap xdef
  1 index dup 2 mul exch getinterval /bbmap xdef pop pop}bdef
/it {gs np dtri aload pop moveto lineto lineto cp c
  cols rows 8 compute_transform 
  rbmap gbmap bbmap true 3 colorimage gr}bdef
/il {newpath moveto lineto stroke}bdef
currentdict end def
%%EndProlog

%%BeginSetup
MathWorks begin

0 cap

end
%%EndSetup

%%Page: 1 1
%%BeginPageSetup
%%PageBoundingBox:  -422    55  1019   786
MathWorks begin
bpage
%%EndPageSetup

%%BeginObject: obj1
bplot

/dpi2point 12 def
portraitMode -5064 9432 csm

    0     0 17294  8761 rc
85 dict begin %Colortable dictionary
/c0 { 0.000000 0.000000 0.000000 sr} bdef
/c1 { 1.000000 1.000000 1.000000 sr} bdef
/c2 { 0.900000 0.000000 0.000000 sr} bdef
/c3 { 0.000000 0.820000 0.000000 sr} bdef
/c4 { 0.000000 0.000000 0.800000 sr} bdef
/c5 { 0.910000 0.820000 0.320000 sr} bdef
/c6 { 1.000000 0.260000 0.820000 sr} bdef
/c7 { 0.000000 0.820000 0.820000 sr} bdef
c0
1 j
1 sg
   0    0 17295 8762 rf
6 w
0 7140 13403 0 0 -7140 2248 7797 4 MP
PP
-13403 0 0 7140 13403 0 0 -7140 2248 7797 5 MP stroke
4 w
DO
SO
6 w
0 sg
2248  657 mt 15651  657 L
2248 7797 mt 15651 7797 L
15651 7797 mt 15651  657 L
2248 7797 mt 2248  657 L
2248 7797 mt 15651 7797 L
2248 7797 mt 2248  657 L
2666 7797 mt 2666 7662 L
2666  657 mt 2666  791 L
%%IncludeResource: font Helvetica
/Helvetica /WindowsLatin1Encoding 216 FMSR

2606 8032 mt 
(0) s
4761 7797 mt 4761 7662 L
4761  657 mt 4761  791 L
4641 8032 mt 
(10) s
6855 7797 mt 6855 7662 L
6855  657 mt 6855  791 L
6735 8032 mt 
(20) s
8949 7797 mt 8949 7662 L
8949  657 mt 8949  791 L
8829 8032 mt 
(30) s
11043 7797 mt 11043 7662 L
11043  657 mt 11043  791 L
10923 8032 mt 
(40) s
13137 7797 mt 13137 7662 L
13137  657 mt 13137  791 L
13017 8032 mt 
(50) s
15232 7797 mt 15232 7662 L
15232  657 mt 15232  791 L
15112 8032 mt 
(60) s
2248 7797 mt 2382 7797 L
15651 7797 mt 15516 7797 L
1967 7877 mt 
(-2) s
2248 6904 mt 2382 6904 L
15651 6904 mt 15516 6904 L
1787 6984 mt 
(-1.5) s
2248 6012 mt 2382 6012 L
15651 6012 mt 15516 6012 L
1967 6092 mt 
(-1) s
2248 5119 mt 2382 5119 L
15651 5119 mt 15516 5119 L
1787 5199 mt 
(-0.5) s
2248 4227 mt 2382 4227 L
15651 4227 mt 15516 4227 L
2093 4307 mt 
(0) s
2248 3334 mt 2382 3334 L
15651 3334 mt 15516 3334 L
1913 3414 mt 
(0.5) s
2248 2442 mt 2382 2442 L
15651 2442 mt 15516 2442 L
2093 2522 mt 
(1) s
2248 1549 mt 2382 1549 L
15651 1549 mt 15516 1549 L
1913 1629 mt 
(1.5) s
2248  657 mt 2382  657 L
15651  657 mt 15516  657 L
2093  737 mt 
(2) s
2248  657 mt 15651  657 L
2248 7797 mt 15651 7797 L
15651 7797 mt 15651  657 L
2248 7797 mt 2248  657 L
gs 2248 657 13404 7141 rc
gr

/c8 { 0.000000 0.000000 1.000000 sr} bdef
c8
2834 7276 mt 2918 7360 L
2918 7276 mt 2834 7360 L
3043 7025 mt 3127 7109 L
3127 7025 mt 3043 7109 L
3253 7025 mt 3337 7109 L
3337 7025 mt 3253 7109 L
3462 7025 mt 3546 7109 L
3546 7025 mt 3462 7109 L
3671 6558 mt 3755 6642 L
3755 6558 mt 3671 6642 L
3881 6558 mt 3965 6642 L
3965 6558 mt 3881 6642 L
4090 6558 mt 4174 6642 L
4174 6558 mt 4090 6642 L
4300 6558 mt 4384 6642 L
4384 6558 mt 4300 6642 L
4509 6558 mt 4593 6642 L
4593 6558 mt 4509 6642 L
4719 6060 mt 4803 6144 L
4803 6060 mt 4719 6144 L
4928 6060 mt 5012 6144 L
5012 6060 mt 4928 6144 L
5137 6060 mt 5221 6144 L
5221 6060 mt 5137 6144 L
5347 5794 mt 5431 5878 L
5431 5794 mt 5347 5878 L
5556 5794 mt 5640 5878 L
5640 5794 mt 5556 5878 L
5766 5794 mt 5850 5878 L
5850 5794 mt 5766 5878 L
5975 5794 mt 6059 5878 L
6059 5794 mt 5975 5878 L
6185 5215 mt 6269 5299 L
6269 5215 mt 6185 5299 L
6394 5215 mt 6478 5299 L
6478 5215 mt 6394 5299 L
6603 5215 mt 6687 5299 L
6687 5215 mt 6603 5299 L
6813 5215 mt 6897 5299 L
6897 5215 mt 6813 5299 L
7022 5215 mt 7106 5299 L
7106 5215 mt 7022 5299 L
7232 5215 mt 7316 5299 L
7316 5215 mt 7232 5299 L
7441 5215 mt 7525 5299 L
7525 5215 mt 7441 5299 L
7650 5215 mt 7734 5299 L
7734 5215 mt 7650 5299 L
7860 5215 mt 7944 5299 L
7944 5215 mt 7860 5299 L
8069 4821 mt 8153 4905 L
8153 4821 mt 8069 4905 L
8279 4821 mt 8363 4905 L
8363 4821 mt 8279 4905 L
8488 4821 mt 8572 4905 L
8572 4821 mt 8488 4905 L
8698 4821 mt 8782 4905 L
8782 4821 mt 8698 4905 L
8907 4821 mt 8991 4905 L
8991 4821 mt 8907 4905 L
9116 4042 mt 9200 4126 L
9200 4042 mt 9116 4126 L
9326 4042 mt 9410 4126 L
9410 4042 mt 9326 4126 L
9535 4042 mt 9619 4126 L
9619 4042 mt 9535 4126 L
9745 3791 mt 9829 3875 L
9829 3791 mt 9745 3875 L
9954 3791 mt 10038 3875 L
10038 3791 mt 9954 3875 L
10164 3791 mt 10248 3875 L
10248 3791 mt 10164 3875 L
10373 2842 mt 10457 2926 L
10457 2842 mt 10373 2926 L
10582 2842 mt 10666 2926 L
10666 2842 mt 10582 2926 L
10792 2842 mt 10876 2926 L
10876 2842 mt 10792 2926 L
11001 2842 mt 11085 2926 L
11085 2842 mt 11001 2926 L
11211 2842 mt 11295 2926 L
11295 2842 mt 11211 2926 L
11420 2702 mt 11504 2786 L
11504 2702 mt 11420 2786 L
11629 2702 mt 11713 2786 L
11713 2702 mt 11629 2786 L
11839 2702 mt 11923 2786 L
11923 2702 mt 11839 2786 L
12048 2517 mt 12132 2601 L
12132 2517 mt 12048 2601 L
12258 2517 mt 12342 2601 L
12342 2517 mt 12258 2601 L
12467 2517 mt 12551 2601 L
12551 2517 mt 12467 2601 L
12677 2517 mt 12761 2601 L
12761 2517 mt 12677 2601 L
12886 2517 mt 12970 2601 L
12970 2517 mt 12886 2601 L
13095 2123 mt 13179 2207 L
13179 2123 mt 13095 2207 L
13305 2123 mt 13389 2207 L
13389 2123 mt 13305 2207 L
13514 2123 mt 13598 2207 L
13598 2123 mt 13514 2207 L
13724 2123 mt 13808 2207 L
13808 2123 mt 13724 2207 L
13933 1545 mt 14017 1629 L
14017 1545 mt 13933 1629 L
14143 1545 mt 14227 1629 L
14227 1545 mt 14143 1629 L
14352 1545 mt 14436 1629 L
14436 1545 mt 14352 1629 L
14561 1545 mt 14645 1629 L
14645 1545 mt 14561 1629 L
14771 1486 mt 14855 1570 L
14855 1486 mt 14771 1570 L
14980 1486 mt 15064 1570 L
15064 1486 mt 14980 1570 L
15190 1486 mt 15274 1570 L
15274 1486 mt 15190 1570 L
gs 2248 657 13404 7141 rc
gr

0 sg
1669 5872 mt  -90 rotate
(Allowed energy levels for MOs \( ) s
90 rotate
%%IncludeResource: font Symbol
/Symbol /WindowsLatin1Encoding 216 FMSR

1669 2787 mt  -90 rotate
(b) s
90 rotate
%%IncludeResource: font Helvetica
/Helvetica /WindowsLatin1Encoding 216 FMSR

1669 2669 mt  -90 rotate
(\)) s
90 rotate

end %%Color Dict

eplot
%%EndObject

epage
end

showpage

%%Trailer
%%EOF
